tb.vcd
$date
  Tue Feb 11 22:24:25 2020
$end
$version
  GHDL v0
$end
$timescale
  1 fs
$end
$var reg 1 ! clk $end
$var reg 1 " rst $end
$var reg 1 # clk_in $end
$var reg 1 $ clk_out $end
$var reg 1 % data_in $end
$var reg 1 & data_out $end
$scope module b0 $end
$var reg 1 ' clk $end
$var reg 1 ( rst $end
$var reg 1 ) clk_in $end
$var reg 1 * data_out $end
$var reg 1 + clk_out $end
$var reg 1 , data_in $end
$var reg 1 - data_from_buffer $end
$var reg 1 . data_to_buffer $end
$var reg 1 / clk_out_s $end
$scope module fake_enc $end
$var reg 1 0 clk $end
$var reg 1 1 rst $end
$var reg 1 2 clk_in $end
$var reg 1 3 data_out $end
$var reg 1 4 data_in $end
$var reg 2 5 edge[0:1] $end
$upscope $end
$scope module buff $end
$var reg 1 6 clk $end
$var reg 1 7 rst $end
$var reg 1 8 clk_in $end
$var reg 1 9 clk_out $end
$var reg 1 : data_out $end
$var reg 1 ; data_in $end
$var reg 17 < ram[0:16] $end
$var reg 2 = edge_wr[0:1] $end
$var reg 2 > edge_rd[0:1] $end
$var integer 32 ? wr_i $end
$var integer 32 @ rd_i $end
$upscope $end
$scope module fake_rob $end
$var reg 1 A clk $end
$var reg 1 B rst $end
$var reg 1 C clk_in $end
$var reg 1 D clk_out $end
$var reg 1 E data_out $end
$var reg 1 F data_in $end
$var reg 2 G edge[0:1] $end
$var integer 32 H h_period $end
$var integer 32 I tmp_h_period $end
$var integer 32 J count $end
$var integer 32 K ticks $end
$var reg 1 L clk_s $end
$var reg 1 M rst_data $end
$upscope $end
$upscope $end
$enddefinitions $end
#0
1!
1"
1#
U$
U%
U&
1'
1(
1)
U*
U+
U,
U-
U.
U/
10
11
12
U3
U4
bUU 5
16
17
18
U9
U:
U;
bUUUUUUUUUUUUUUUUU <
bUU =
bUU >
b0 ?
b0 @
1A
1B
1C
UD
UE
UF
bUU G
b10000000000000000000000000000000 H
b10000000000000000000000000000000 I
b10000000000000000000000000000000 J
b10000000000000000000000000000000 K
UL
UM
#20000000
0!
0"
0#
0'
0(
0)
00
01
02
06
07
08
0A
0B
0C
#25000000
1!
0$
1'
0+
0/
10
b0U 5
16
09
b0U >
1A
0D
b0U G
b10000000000000000000000000000001 I
0L
#30000000
0!
0'
00
06
0A
#35000000
1!
1'
10
b00 5
16
b0U =
b00 >
1A
b00 G
b10000000000000000000000000000010 I
#40000000
0!
1#
0'
1)
00
12
06
18
0A
1C
#45000000
1!
1$
1'
1+
1/
10
b10 5
16
19
b00 =
b10 >
1A
1D
b10 G
b10000000000000000000000000000011 I
1L
#50000000
0!
0'
00
06
0A
#55000000
1!
1'
10
b11 5
16
b10 =
b11 >
1A
b11 G
b10000000000000000000000000000011 H
b10000000000000000000000000000001 K
#60000000
0!
0#
0'
0)
00
02
06
08
0A
0C
#65000000
1!
0$
1'
0+
0/
10
b01 5
16
09
b11 =
b01 >
1A
0D
b01 G
b10000000000000000000000000000100 I
0L
#70000000
0!
0'
00
06
0A
#75000000
1!
1'
10
b00 5
16
b01 =
b00 >
b1 @
1A
b00 G
b0 I
#80000000
0!
1#
0'
1)
00
12
06
18
0A
1C
#85000000
1!
1$
1'
1+
1/
10
b10 5
16
19
b00 =
b10 >
b1 ?
1A
1D
b10 G
b1 I
1L
#90000000
0!
0'
00
06
0A
#95000000
1!
1'
10
b11 5
16
b10 =
b11 >
1A
b11 G
b1 H
b10000000000000000000000000000010 K
#100000000
0!
0#
0'
0)
00
02
06
08
0A
0C
#105000000
1!
0$
1'
0+
0/
10
b01 5
16
09
b11 =
b01 >
1A
0D
b01 G
b10 I
0L
#110000000
0!
0'
00
06
0A
#115000000
1!
1'
10
b00 5
16
b01 =
b00 >
b10 @
1A
b00 G
b0 I
#120000000
0!
1#
0'
1)
00
12
06
18
0A
1C
#125000000
1!
1$
1'
1+
1/
10
b10 5
16
19
b00 =
b10 >
b10 ?
1A
1D
b10 G
b1 I
1L
#130000000
0!
0'
00
06
0A
#135000000
1!
1'
10
b11 5
16
b10 =
b11 >
1A
b11 G
b10000000000000000000000000000011 K
#140000000
0!
0#
0'
0)
00
02
06
08
0A
0C
#145000000
1!
0$
1'
0+
0/
10
b01 5
16
09
b11 =
b01 >
1A
0D
b01 G
b10 I
0L
#150000000
0!
0'
00
06
0A
#155000000
1!
1'
10
b00 5
16
b01 =
b00 >
b11 @
1A
b00 G
b0 I
#160000000
0!
1#
0'
1)
00
12
06
18
0A
1C
#165000000
1!
1$
1'
1+
1/
10
b10 5
16
19
b00 =
b10 >
b11 ?
1A
1D
b10 G
b1 I
1L
#170000000
0!
0'
00
06
0A
#175000000
1!
1'
10
b11 5
16
b10 =
b11 >
1A
b11 G
b10000000000000000000000000000100 K
#180000000
0!
0#
0'
0)
00
02
06
08
0A
0C
#185000000
1!
0$
1'
0+
0/
10
b01 5
16
09
b11 =
b01 >
1A
0D
b01 G
b10 I
0L
#190000000
0!
0'
00
06
0A
#195000000
1!
1'
10
b00 5
16
b01 =
b00 >
b100 @
1A
b00 G
b0 I
#200000000
0!
1#
0'
1)
00
12
06
18
0A
1C
#205000000
1!
1$
1'
1+
1/
10
b10 5
16
19
b00 =
b10 >
b100 ?
1A
1D
b10 G
b1 I
1L
#210000000
0!
0'
00
06
0A
#215000000
1!
1'
10
b11 5
16
b10 =
b11 >
1A
b11 G
b10000000000000000000000000000101 K
#220000000
0!
0#
0'
0)
00
02
06
08
0A
0C
#225000000
1!
0$
1'
0+
0/
10
b01 5
16
09
b11 =
b01 >
1A
0D
b01 G
b10 I
0L
#230000000
0!
0'
00
06
0A
#235000000
1!
1'
10
b00 5
16
b01 =
b00 >
b101 @
1A
b00 G
b0 I
#240000000
0!
1#
0'
1)
00
12
06
18
0A
1C
#245000000
1!
1$
1'
1+
1/
10
b10 5
16
19
b00 =
b10 >
b101 ?
1A
1D
b10 G
b1 I
1L
#250000000
0!
0'
00
06
0A
#255000000
1!
1'
10
b11 5
16
b10 =
b11 >
1A
b11 G
b10000000000000000000000000000110 K
#260000000
0!
0#
0'
0)
00
02
06
08
0A
0C
#265000000
1!
0$
1'
0+
0/
10
b01 5
16
09
b11 =
b01 >
1A
0D
b01 G
b10 I
0L
#270000000
0!
0'
00
06
0A
#275000000
1!
1'
10
b00 5
16
b01 =
b00 >
b110 @
1A
b00 G
b0 I
#280000000
0!
1#
0'
1)
00
12
06
18
0A
1C
#285000000
1!
1$
1'
1+
1/
10
b10 5
16
19
b00 =
b10 >
b110 ?
1A
1D
b10 G
b1 I
1L
#290000000
0!
0'
00
06
0A
#295000000
1!
1'
10
b11 5
16
b10 =
b11 >
1A
b11 G
b10000000000000000000000000000111 K
#300000000
0!
0#
0'
0)
00
02
06
08
0A
0C
#305000000
1!
0$
1'
0+
0/
10
b01 5
16
09
b11 =
b01 >
1A
0D
b01 G
b10 I
0L
#310000000
0!
0'
00
06
0A
#315000000
1!
1'
10
b00 5
16
b01 =
b00 >
b111 @
1A
b00 G
b0 I
#320000000
0!
1#
0'
1)
00
12
06
18
0A
1C
#325000000
1!
1$
1'
1+
1/
10
b10 5
16
19
b00 =
b10 >
b111 ?
1A
1D
b10 G
b1 I
1L
#330000000
0!
0'
00
06
0A
#335000000
1!
1'
10
b11 5
16
b10 =
b11 >
1A
b11 G
b10000000000000000000000000001000 K
#340000000
0!
0#
0'
0)
00
02
06
08
0A
0C
#345000000
1!
0$
1'
0+
0/
10
b01 5
16
09
b11 =
b01 >
1A
0D
b01 G
b10 I
0L
#350000000
0!
0'
00
06
0A
#355000000
1!
1'
10
b00 5
16
b01 =
b00 >
b1000 @
1A
b00 G
b0 I
#360000000
0!
1#
0'
1)
00
12
06
18
0A
1C
#365000000
1!
1$
1'
1+
1/
10
b10 5
16
19
b00 =
b10 >
b1000 ?
1A
1D
b10 G
b1 I
1L
#370000000
0!
0'
00
06
0A
#375000000
1!
1'
10
b11 5
16
b10 =
b11 >
1A
b11 G
b10000000000000000000000000001001 K
#380000000
0!
0#
0'
0)
00
02
06
08
0A
0C
#385000000
1!
0$
1'
0+
0/
10
b01 5
16
09
b11 =
b01 >
1A
0D
b01 G
b10 I
0L
#390000000
0!
0'
00
06
0A
#395000000
1!
1'
10
b00 5
16
b01 =
b00 >
b1001 @
1A
b00 G
b0 I
#400000000
0!
1#
0'
1)
00
12
06
18
0A
1C
#405000000
1!
1$
1'
1+
1/
10
b10 5
16
19
b00 =
b10 >
b1001 ?
1A
1D
b10 G
b1 I
1L
#410000000
0!
0'
00
06
0A
#415000000
1!
1'
10
b11 5
16
b10 =
b11 >
1A
b11 G
b10000000000000000000000000001010 K
#420000000
0!
0#
0'
0)
00
02
06
08
0A
0C
#425000000
1!
0$
1'
0+
0/
10
b01 5
16
09
b11 =
b01 >
1A
0D
b01 G
b10 I
0L
#430000000
0!
0'
00
06
0A
#435000000
1!
1'
10
b00 5
16
b01 =
b00 >
b1010 @
1A
b00 G
b0 I
#440000000
0!
1#
0'
1)
00
12
06
18
0A
1C
#445000000
1!
1$
1'
1+
1/
10
b10 5
16
19
b00 =
b10 >
b1010 ?
1A
1D
b10 G
b1 I
1L
#450000000
0!
0'
00
06
0A
#455000000
1!
1'
10
b11 5
16
b10 =
b11 >
1A
b11 G
b10000000000000000000000000001011 K
#460000000
0!
0#
0'
0)
00
02
06
08
0A
0C
#465000000
1!
0$
1'
0+
0/
10
b01 5
16
09
b11 =
b01 >
1A
0D
b01 G
b10 I
0L
#470000000
0!
0'
00
06
0A
#475000000
1!
1'
10
b00 5
16
b01 =
b00 >
b1011 @
1A
b00 G
b0 I
#480000000
0!
1#
0'
1)
00
12
06
18
0A
1C
#485000000
1!
1$
1'
1+
1/
10
b10 5
16
19
b00 =
b10 >
b1011 ?
1A
1D
b10 G
b1 I
1L
#490000000
0!
0'
00
06
0A
#495000000
1!
1'
10
b11 5
16
b10 =
b11 >
1A
b11 G
b10000000000000000000000000001100 K
#500000000
0!
0#
0'
0)
00
02
06
08
0A
0C
#505000000
1!
0$
1'
0+
0/
10
b01 5
16
09
b11 =
b01 >
1A
0D
b01 G
b10 I
0L
#510000000
0!
0'
00
06
0A
#515000000
1!
1'
10
b00 5
16
b01 =
b00 >
b1100 @
1A
b00 G
b0 I
#520000000
0!
1#
0'
1)
00
12
06
18
0A
1C
#525000000
1!
1$
1'
1+
1/
10
b10 5
16
19
b00 =
b10 >
b1100 ?
1A
1D
b10 G
b1 I
1L
#530000000
0!
0'
00
06
0A
#535000000
1!
1'
10
b11 5
16
b10 =
b11 >
1A
b11 G
b10000000000000000000000000001101 K
#540000000
0!
0#
0'
0)
00
02
06
08
0A
0C
#545000000
1!
0$
1'
0+
0/
10
b01 5
16
09
b11 =
b01 >
1A
0D
b01 G
b10 I
0L
#550000000
0!
0'
00
06
0A
#555000000
1!
1'
10
b00 5
16
b01 =
b00 >
b1101 @
1A
b00 G
b0 I
#560000000
0!
1#
0'
1)
00
12
06
18
0A
1C
#565000000
1!
1$
1'
1+
1/
10
b10 5
16
19
b00 =
b10 >
b1101 ?
1A
1D
b10 G
b1 I
1L
#570000000
0!
0'
00
06
0A
#575000000
1!
1'
10
b11 5
16
b10 =
b11 >
1A
b11 G
b10000000000000000000000000001110 K
#580000000
0!
0#
0'
0)
00
02
06
08
0A
0C
#585000000
1!
0$
1'
0+
0/
10
b01 5
16
09
b11 =
b01 >
1A
0D
b01 G
b10 I
0L
#590000000
0!
0'
00
06
0A
#595000000
1!
1'
10
b00 5
16
b01 =
b00 >
b1110 @
1A
b00 G
b0 I
#600000000
0!
1#
0'
1)
00
12
06
18
0A
1C
#605000000
1!
1$
1'
1+
1/
10
b10 5
16
19
b00 =
b10 >
b1110 ?
1A
1D
b10 G
b1 I
1L
#610000000
0!
0'
00
06
0A
#615000000
1!
1'
10
b11 5
16
b10 =
b11 >
1A
b11 G
b10000000000000000000000000001111 K
#620000000
0!
0#
0'
0)
00
02
06
08
0A
0C
#625000000
1!
0$
1'
0+
0/
10
b01 5
16
09
b11 =
b01 >
1A
0D
b01 G
b10 I
0L
#630000000
0!
0'
00
06
0A
#635000000
1!
1'
10
b00 5
16
b01 =
b00 >
b1111 @
1A
b00 G
b0 I
#640000000
0!
1#
0'
1)
00
12
06
18
0A
1C
#645000000
1!
1$
1'
1+
1/
10
b10 5
16
19
b00 =
b10 >
b1111 ?
1A
1D
b10 G
b1 I
1L
#650000000
0!
0'
00
06
0A
#655000000
1!
1'
10
b11 5
16
b10 =
b11 >
1A
b11 G
b10000000000000000000000000010000 K
#660000000
0!
0'
00
06
0A
#665000000
1!
1'
10
16
b11 =
1A
b10 I
#670000000
0!
0'
00
06
0A
#675000000
1!
1'
10
16
1A
b11 I
#680000000
0!
0'
00
06
0A
#685000000
1!
1'
10
16
1A
b100 I
#690000000
0!
0'
00
06
0A
#695000000
1!
1'
10
16
1A
b101 I
#700000000
0!
0'
00
06
0A
#705000000
1!
1'
10
16
1A
b110 I
#710000000
0!
0'
00
06
0A
#715000000
1!
1'
10
16
1A
b111 I
#720000000
0!
0'
00
06
0A
#725000000
1!
1'
10
16
1A
b1000 I
#730000000
0!
0'
00
06
0A
#735000000
1!
1'
10
16
1A
b1001 I
#740000000
0!
0'
00
06
0A
#745000000
1!
1'
10
16
1A
b1010 I
#750000000
0!
0'
00
06
0A
#755000000
1!
1'
10
16
1A
b1011 I
#760000000
0!
0'
00
06
0A
#765000000
1!
1'
10
16
1A
b1100 I
#770000000
0!
0'
00
06
0A
#775000000
1!
1'
10
16
1A
b1101 I
#780000000
0!
0'
00
06
0A
#785000000
1!
1'
10
16
1A
b1110 I
#790000000
0!
0'
00
06
0A
#795000000
1!
1'
10
16
1A
b1111 I
#800000000
0!
0'
00
06
0A
#805000000
1!
1'
10
16
1A
b10000 I
#810000000
0!
0'
00
06
0A
#815000000
1!
1'
10
16
1A
b10001 I
#820000000
0!
0'
00
06
0A
#825000000
1!
1'
10
16
1A
b10010 I
#830000000
0!
0'
00
06
0A
#835000000
1!
1'
10
16
1A
b10011 I
#840000000
0!
0'
00
06
0A
#845000000
1!
1'
10
16
1A
b10100 I
#850000000
0!
0'
00
06
0A
#855000000
1!
1'
10
16
1A
b10101 I
#860000000
0!
0'
00
06
0A
#865000000
1!
1'
10
16
1A
b10110 I
#870000000
0!
0'
00
06
0A
#875000000
1!
1'
10
16
1A
b10111 I
#880000000
0!
0'
00
06
0A
#885000000
1!
1'
10
16
1A
b11000 I
#890000000
0!
0'
00
06
0A
#895000000
1!
1'
10
16
1A
b11001 I
#900000000
0!
0'
00
06
0A
#905000000
1!
1'
10
16
1A
b11010 I
#910000000
0!
0'
00
06
0A
#915000000
1!
1'
10
16
1A
b11011 I
#920000000
0!
0'
00
06
0A
#925000000
1!
1'
10
16
1A
b11100 I
#930000000
0!
0'
00
06
0A
#935000000
1!
1'
10
16
1A
b11101 I
#940000000
0!
0'
00
06
0A
#945000000
1!
1'
10
16
1A
b11110 I
#950000000
0!
0'
00
06
0A
#955000000
1!
1'
10
16
1A
b11111 I
#960000000
0!
0#
0'
0)
00
02
06
08
0A
0C
#965000000
1!
0$
1'
0+
0/
10
b01 5
16
09
b01 >
1A
0D
b01 G
b100000 I
0L
#970000000
0!
0'
00
06
0A
#975000000
1!
1'
10
b00 5
16
b01 =
b00 >
b10000 @
1A
b00 G
b0 I
#980000000
0!
1#
0'
1)
00
12
06
18
0A
1C
#985000000
1!
1$
1'
1+
1/
10
b10 5
16
19
b00 =
b10 >
b10000 ?
1A
1D
b10 G
b1 I
1L
#990000000
0!
0'
00
06
0A
#995000000
1!
1'
10
b11 5
16
b10 =
b11 >
1A
b11 G
b10000000000000000000000000010001 K
#1000000000
0!
0#
0'
0)
00
02
06
08
0A
0C
#1005000000
1!
0$
1'
0+
0/
10
b01 5
16
09
b11 =
b01 >
1A
0D
b01 G
b10 I
0L
#1010000000
0!
0'
00
06
0A
#1015000000
1!
1'
10
b00 5
16
b01 =
b00 >
b1 @
1A
b00 G
b0 I
#1020000000
0!
1#
0'
1)
00
12
06
18
0A
1C
#1025000000
1!
1$
1'
1+
1/
10
b10 5
16
19
b00 =
b10 >
b0 ?
1A
1D
b10 G
b1 I
1L
#1030000000
0!
0'
00
06
0A
#1035000000
1!
1'
10
b11 5
16
b10 =
b11 >
1A
b11 G
b10000000000000000000000000010010 K
#1040000000
0!
0#
0'
0)
00
02
06
08
0A
0C
#1045000000
1!
0$
1'
0+
0/
10
b01 5
16
09
b11 =
b01 >
1A
0D
b01 G
b10 I
0L
#1050000000
0!
0'
00
06
0A
#1055000000
1!
1'
10
b00 5
16
b01 =
b00 >
b10 @
1A
b00 G
b0 I
#1060000000
0!
1#
0'
1)
00
12
06
18
0A
1C
#1065000000
1!
1$
1'
1+
1/
10
b10 5
16
19
b00 =
b10 >
b1 ?
1A
1D
b10 G
b1 I
1L
#1070000000
0!
0'
00
06
0A
#1075000000
1!
1'
10
b11 5
16
b10 =
b11 >
1A
b11 G
b10000000000000000000000000010011 K
#1080000000
0!
0#
0'
0)
00
02
06
08
0A
0C
#1085000000
1!
0$
1'
0+
0/
10
b01 5
16
09
b11 =
b01 >
1A
0D
b01 G
b10 I
0L
#1090000000
0!
0'
00
06
0A
#1095000000
1!
1'
10
b00 5
16
b01 =
b00 >
b11 @
1A
b00 G
b0 I
#1100000000
0!
1#
0'
1)
00
12
06
18
0A
1C
#1105000000
1!
1$
1'
1+
1/
10
b10 5
16
19
b00 =
b10 >
b10 ?
1A
1D
b10 G
b1 I
1L
#1110000000
0!
0'
00
06
0A
#1115000000
1!
1'
10
b11 5
16
b10 =
b11 >
1A
b11 G
b10000000000000000000000000010100 K
#1120000000
0!
0#
0'
0)
00
02
06
08
0A
0C
#1125000000
1!
0$
1'
0+
0/
10
b01 5
16
09
b11 =
b01 >
1A
0D
b01 G
b10 I
0L
#1130000000
0!
0'
00
06
0A
#1135000000
1!
1'
10
b00 5
16
b01 =
b00 >
b100 @
1A
b00 G
b0 I
#1140000000
0!
1#
0'
1)
00
12
06
18
0A
1C
#1145000000
1!
1$
1'
1+
1/
10
b10 5
16
19
b00 =
b10 >
b11 ?
1A
1D
b10 G
b1 I
1L
#1150000000
0!
0'
00
06
0A
#1155000000
1!
1'
10
b11 5
16
b10 =
b11 >
1A
b11 G
b10000000000000000000000000010101 K
#1160000000
0!
0#
0'
0)
00
02
06
08
0A
0C
#1165000000
1!
0$
1'
0+
0/
10
b01 5
16
09
b11 =
b01 >
1A
0D
b01 G
b10 I
0L
#1170000000
0!
0'
00
06
0A
#1175000000
1!
1'
10
b00 5
16
b01 =
b00 >
b101 @
1A
b00 G
b0 I
#1180000000
0!
1#
0'
1)
00
12
06
18
0A
1C
#1185000000
1!
1$
1'
1+
1/
10
b10 5
16
19
b00 =
b10 >
b100 ?
1A
1D
b10 G
b1 I
1L
#1190000000
0!
0'
00
06
0A
#1195000000
1!
1'
10
b11 5
16
b10 =
b11 >
1A
b11 G
b10000000000000000000000000010110 K
#1200000000
0!
0#
0'
0)
00
02
06
08
0A
0C
#1205000000
1!
0$
1'
0+
0/
10
b01 5
16
09
b11 =
b01 >
1A
0D
b01 G
b10 I
0L
#1210000000
0!
0'
00
06
0A
#1215000000
1!
1'
10
b00 5
16
b01 =
b00 >
b110 @
1A
b00 G
b0 I
#1220000000
0!
1#
0'
1)
00
12
06
18
0A
1C
#1225000000
1!
1$
1'
1+
1/
10
b10 5
16
19
b00 =
b10 >
b101 ?
1A
1D
b10 G
b1 I
1L
#1230000000
0!
0'
00
06
0A
#1235000000
1!
1'
10
b11 5
16
b10 =
b11 >
1A
b11 G
b10000000000000000000000000010111 K
#1240000000
0!
0#
0'
0)
00
02
06
08
0A
0C
#1245000000
1!
0$
1'
0+
0/
10
b01 5
16
09
b11 =
b01 >
1A
0D
b01 G
b10 I
0L
#1250000000
0!
0'
00
06
0A
#1255000000
1!
1'
10
b00 5
16
b01 =
b00 >
b111 @
1A
b00 G
b0 I
#1260000000
0!
1#
0'
1)
00
12
06
18
0A
1C
#1265000000
1!
1$
1'
1+
1/
10
b10 5
16
19
b00 =
b10 >
b110 ?
1A
1D
b10 G
b1 I
1L
#1270000000
0!
0'
00
06
0A
#1275000000
1!
1'
10
b11 5
16
b10 =
b11 >
1A
b11 G
b10000000000000000000000000011000 K
#1280000000
0!
0#
0'
0)
00
02
06
08
0A
0C
#1285000000
1!
0$
1'
0+
0/
10
b01 5
16
09
b11 =
b01 >
1A
0D
b01 G
b10 I
0L
#1290000000
0!
0'
00
06
0A
#1295000000
1!
1'
10
b00 5
16
b01 =
b00 >
b1000 @
1A
b00 G
b0 I
#1300000000
0!
1#
0'
1)
00
12
06
18
0A
1C
#1305000000
1!
1$
1'
1+
1/
10
b10 5
16
19
b00 =
b10 >
b111 ?
1A
1D
b10 G
b1 I
1L
#1310000000
0!
0'
00
06
0A
#1315000000
1!
1'
10
b11 5
16
b10 =
b11 >
1A
b11 G
b10000000000000000000000000011001 K
#1320000000
0!
0#
0'
0)
00
02
06
08
0A
0C
#1325000000
1!
0$
1'
0+
0/
10
b01 5
16
09
b11 =
b01 >
1A
0D
b01 G
b10 I
0L
#1330000000
0!
0'
00
06
0A
#1335000000
1!
1'
10
b00 5
16
b01 =
b00 >
b1001 @
1A
b00 G
b0 I
#1340000000
0!
1#
0'
1)
00
12
06
18
0A
1C
#1345000000
1!
1$
1'
1+
1/
10
b10 5
16
19
b00 =
b10 >
b1000 ?
1A
1D
b10 G
b1 I
1L
#1350000000
0!
0'
00
06
0A
#1355000000
1!
1'
10
b11 5
16
b10 =
b11 >
1A
b11 G
b10000000000000000000000000011010 K
#1360000000
0!
0#
0'
0)
00
02
06
08
0A
0C
#1365000000
1!
0$
1'
0+
0/
10
b01 5
16
09
b11 =
b01 >
1A
0D
b01 G
b10 I
0L
#1370000000
0!
0'
00
06
0A
#1375000000
1!
1'
10
b00 5
16
b01 =
b00 >
b1010 @
1A
b00 G
b0 I
#1380000000
0!
1#
0'
1)
00
12
06
18
0A
1C
#1385000000
1!
1$
1'
1+
1/
10
b10 5
16
19
b00 =
b10 >
b1001 ?
1A
1D
b10 G
b1 I
1L
#1390000000
0!
0'
00
06
0A
#1395000000
1!
1'
10
b11 5
16
b10 =
b11 >
1A
b11 G
b10000000000000000000000000011011 K
#1400000000
0!
0#
0'
0)
00
02
06
08
0A
0C
#1405000000
1!
0$
1'
0+
0/
10
b01 5
16
09
b11 =
b01 >
1A
0D
b01 G
b10 I
0L
#1410000000
0!
0'
00
06
0A
#1415000000
1!
1'
10
b00 5
16
b01 =
b00 >
b1011 @
1A
b00 G
b0 I
#1420000000
0!
1#
0'
1)
00
12
06
18
0A
1C
#1425000000
1!
1$
1'
1+
1/
10
b10 5
16
19
b00 =
b10 >
b1010 ?
1A
1D
b10 G
b1 I
1L
#1430000000
0!
0'
00
06
0A
#1435000000
1!
1'
10
b11 5
16
b10 =
b11 >
1A
b11 G
b10000000000000000000000000011100 K
#1440000000
0!
0#
0'
0)
00
02
06
08
0A
0C
#1445000000
1!
0$
1'
0+
0/
10
b01 5
16
09
b11 =
b01 >
1A
0D
b01 G
b10 I
0L
#1450000000
0!
0'
00
06
0A
#1455000000
1!
1'
10
b00 5
16
b01 =
b00 >
b1100 @
1A
b00 G
b0 I
#1460000000
0!
1#
0'
1)
00
12
06
18
0A
1C
#1465000000
1!
1$
1'
1+
1/
10
b10 5
16
19
b00 =
b10 >
b1011 ?
1A
1D
b10 G
b1 I
1L
#1470000000
0!
0'
00
06
0A
#1475000000
1!
1'
10
b11 5
16
b10 =
b11 >
1A
b11 G
b10000000000000000000000000011101 K
#1480000000
0!
0#
0'
0)
00
02
06
08
0A
0C
#1485000000
1!
0$
1'
0+
0/
10
b01 5
16
09
b11 =
b01 >
1A
0D
b01 G
b10 I
0L
#1490000000
0!
0'
00
06
0A
#1495000000
1!
1'
10
b00 5
16
b01 =
b00 >
b1101 @
1A
b00 G
b0 I
#1500000000
0!
1#
0'
1)
00
12
06
18
0A
1C
#1505000000
1!
1$
1'
1+
1/
10
b10 5
16
19
b00 =
b10 >
b1100 ?
1A
1D
b10 G
b1 I
1L
#1510000000
0!
0'
00
06
0A
#1515000000
1!
1'
10
b11 5
16
b10 =
b11 >
1A
b11 G
b10000000000000000000000000011110 K
#1520000000
0!
0#
0'
0)
00
02
06
08
0A
0C
#1525000000
1!
0$
1'
0+
0/
10
b01 5
16
09
b11 =
b01 >
1A
0D
b01 G
b10 I
0L
#1530000000
0!
0'
00
06
0A
#1535000000
1!
1'
10
b00 5
16
b01 =
b00 >
b1110 @
1A
b00 G
b0 I
#1540000000
0!
1#
0'
1)
00
12
06
18
0A
1C
#1545000000
1!
1$
1'
1+
1/
10
b10 5
16
19
b00 =
b10 >
b1101 ?
1A
1D
b10 G
b1 I
1L
#1550000000
0!
0'
00
06
0A
#1555000000
1!
1'
10
b11 5
16
b10 =
b11 >
1A
b11 G
b10000000000000000000000000011111 K
#1560000000
0!
0#
0'
0)
00
02
06
08
0A
0C
#1565000000
1!
0$
1'
0+
0/
10
b01 5
16
09
b11 =
b01 >
1A
0D
b01 G
b10 I
0L
#1570000000
0!
0'
00
06
0A
#1575000000
1!
1'
10
b00 5
16
b01 =
b00 >
b1111 @
1A
b00 G
b0 I
#1580000000
0!
1#
0'
1)
00
12
06
18
0A
1C
#1585000000
1!
1$
1'
1+
1/
10
b10 5
16
19
b00 =
b10 >
b1110 ?
1A
1D
b10 G
b1 I
1L
#1590000000
0!
0'
00
06
0A
#1595000000
1!
1'
10
b11 5
16
b10 =
b11 >
1A
b11 G
b10000000000000000000000000100000 K
#1600000000
0!
0'
00
06
0A
#1605000000
1!
1'
10
16
b11 =
1A
b10 I
#1610000000
0!
0'
00
06
0A
#1615000000
1!
1'
10
16
1A
b11 I
#1620000000
0!
0'
00
06
0A
#1625000000
1!
1'
10
16
1A
b100 I
#1630000000
0!
0'
00
06
0A
#1635000000
1!
1'
10
16
1A
b101 I
#1640000000
0!
0'
00
06
0A
#1645000000
1!
1'
10
16
1A
b110 I
#1650000000
0!
0'
00
06
0A
#1655000000
1!
1'
10
16
1A
b111 I
#1660000000
0!
0'
00
06
0A
#1665000000
1!
1'
10
16
1A
b1000 I
#1670000000
0!
0'
00
06
0A
#1675000000
1!
1'
10
16
1A
b1001 I
#1680000000
0!
0'
00
06
0A
#1685000000
1!
1'
10
16
1A
b1010 I
#1690000000
0!
0'
00
06
0A
#1695000000
1!
1'
10
16
1A
b1011 I
#1700000000
0!
0'
00
06
0A
#1705000000
1!
1'
10
16
1A
b1100 I
#1710000000
0!
0'
00
06
0A
#1715000000
1!
1'
10
16
1A
b1101 I
#1720000000
0!
0'
00
06
0A
#1725000000
1!
1'
10
16
1A
b1110 I
#1730000000
0!
0'
00
06
0A
#1735000000
1!
1'
10
16
1A
b1111 I
#1740000000
0!
0'
00
06
0A
#1745000000
1!
1'
10
16
1A
b10000 I
#1750000000
0!
0'
00
06
0A
#1755000000
1!
1'
10
16
1A
b10001 I
#1760000000
0!
0'
00
06
0A
#1765000000
1!
1'
10
16
1A
b10010 I
#1770000000
0!
0'
00
06
0A
#1775000000
1!
1'
10
16
1A
b10011 I
#1780000000
0!
0'
00
06
0A
#1785000000
1!
1'
10
16
1A
b10100 I
#1790000000
0!
0'
00
06
0A
#1795000000
1!
1'
10
16
1A
b10101 I
#1800000000
0!
0'
00
06
0A
#1805000000
1!
1'
10
16
1A
b10110 I
#1810000000
0!
0'
00
06
0A
#1815000000
1!
1'
10
16
1A
b10111 I
#1820000000
0!
0'
00
06
0A
#1825000000
1!
1'
10
16
1A
b11000 I
#1830000000
0!
0'
00
06
0A
#1835000000
1!
1'
10
16
1A
b11001 I
#1840000000
0!
0'
00
06
0A
#1845000000
1!
1'
10
16
1A
b11010 I
#1850000000
0!
0'
00
06
0A
#1855000000
1!
1'
10
16
1A
b11011 I
#1860000000
0!
0'
00
06
0A
#1865000000
1!
1'
10
16
1A
b11100 I
#1870000000
0!
0'
00
06
0A
#1875000000
1!
1'
10
16
1A
b11101 I
#1880000000
0!
0'
00
06
0A
#1885000000
1!
1'
10
16
1A
b11110 I
#1890000000
0!
0'
00
06
0A
#1895000000
1!
1'
10
16
1A
b11111 I
#1900000000
0!
0#
0'
0)
00
02
06
08
0A
0C
#1905000000
1!
0$
1'
0+
0/
10
b01 5
16
09
b01 >
1A
0D
b01 G
b100000 I
0L
#1910000000
0!
0'
00
06
0A
#1915000000
1!
1'
10
b00 5
16
b01 =
b00 >
b10000 @
1A
b00 G
b0 I
#1920000000
0!
1#
0'
1)
00
12
06
18
0A
1C
#1925000000
1!
1$
1'
1+
1/
10
b10 5
16
19
b00 =
b10 >
b1111 ?
1A
1D
b10 G
b1 I
1L
#1930000000
0!
0'
00
06
0A
#1935000000
1!
1'
10
b11 5
16
b10 =
b11 >
1A
b11 G
b10000000000000000000000000100001 K
#1940000000
0!
0#
0'
0)
00
02
06
08
0A
0C
#1945000000
1!
0$
1'
0+
0/
10
b01 5
16
09
b11 =
b01 >
1A
0D
b01 G
b10 I
0L
#1950000000
0!
0'
00
06
0A
#1955000000
1!
1'
10
b00 5
16
b01 =
b00 >
b1 @
1A
b00 G
b0 I
#1960000000
0!
1#
0'
1)
00
12
06
18
0A
1C
#1965000000
1!
1$
1'
1+
1/
10
b10 5
16
19
b00 =
b10 >
b10000 ?
1A
1D
b10 G
b1 I
1L
#1970000000
0!
0'
00
06
0A
#1975000000
1!
1'
10
b11 5
16
b10 =
b11 >
1A
b11 G
b10000000000000000000000000100010 K
#1980000000
0!
0#
0'
0)
00
02
06
08
0A
0C
#1985000000
1!
0$
1'
0+
0/
10
b01 5
16
09
b11 =
b01 >
1A
0D
b01 G
b10 I
0L
